// Jest Snapshot v1, https://goo.gl/fbAQLP

exports[`The \`Card\` component does not render the title & description prop in a \`CardHeader\` component 1`] = `
<WithStyles(ForwardRef(Card))
  classes={
    Object {
      "root": undefined,
    }
  }
>
  <Render>
    <WithStyles(ForwardRef(CardHeader))
      classes={
        Object {
          "root": undefined,
          "subheader": undefined,
          "title": undefined,
        }
      }
    />
  </Render>
  <WithStyles(ForwardRef(CardContent))
    classes={
      Object {
        "root": undefined,
      }
    }
  >
    <div>
      Hello, World!
    </div>
  </WithStyles(ForwardRef(CardContent))>
</WithStyles(ForwardRef(Card))>
`;

exports[`The \`Card\` component renders the title & description prop in a \`CardHeader\` component 1`] = `
<WithStyles(ForwardRef(Card))
  classes={
    Object {
      "root": undefined,
    }
  }
>
  <Render
    condition="Hello!"
  >
    <WithStyles(ForwardRef(CardHeader))
      classes={
        Object {
          "root": undefined,
          "subheader": undefined,
          "title": undefined,
        }
      }
      subheader="Hello!"
      title="Hello!"
    />
  </Render>
  <WithStyles(ForwardRef(CardContent))
    classes={
      Object {
        "root": undefined,
      }
    }
  >
    <div>
      Hello, World!
    </div>
  </WithStyles(ForwardRef(CardContent))>
</WithStyles(ForwardRef(Card))>
`;
